^C:\CESARBRAGAGNINI\BITBUCKET\CG_AUGREA\CG_AUGREA_CIRRING\CG_AUGREA_CIRRING\CHARACTER.CPP
/c /I..\external\FreeImage\Dist /I"..\external\glew-1.10.0\include" /I"..\external\glm-0.9.4.0" /I"..\external\glfw-3.2.1\include" /I"..\external\opencv-3.1.0\build\include" /ZI /nologo /W3 /WX- /sdl /Od /Oy- /D _CRT_SECURE_NO_WARNINGS /D _MBCS /Gm /EHsc /RTC1 /MDd /GS /fp:precise /Zc:wchar_t /Zc:forScope /Fo"DEBUG\\" /Fd"DEBUG\VC120.PDB" /Gd /TP /analyze- C:\CESARBRAGAGNINI\BITBUCKET\CG_AUGREA\CG_AUGREA_CIRRING\CG_AUGREA_CIRRING\CHARACTER.CPP
^C:\CESARBRAGAGNINI\BITBUCKET\CG_AUGREA\CG_AUGREA_CIRRING\CG_AUGREA_CIRRING\KFTRACKING.CPP
/c /I..\external\FreeImage\Dist /I"..\external\glew-1.10.0\include" /I"..\external\glm-0.9.4.0" /I"..\external\glfw-3.2.1\include" /I"..\external\opencv-3.1.0\build\include" /ZI /nologo /W3 /WX- /sdl /Od /Oy- /D _CRT_SECURE_NO_WARNINGS /D _MBCS /Gm /EHsc /RTC1 /MDd /GS /fp:precise /Zc:wchar_t /Zc:forScope /Fo"DEBUG\\" /Fd"DEBUG\VC120.PDB" /Gd /TP /analyze- C:\CESARBRAGAGNINI\BITBUCKET\CG_AUGREA\CG_AUGREA_CIRRING\CG_AUGREA_CIRRING\KFTRACKING.CPP
^C:\CESARBRAGAGNINI\BITBUCKET\CG_AUGREA\CG_AUGREA_CIRRING\CG_AUGREA_CIRRING\MAIN.CPP
/c /I..\external\FreeImage\Dist /I"..\external\glew-1.10.0\include" /I"..\external\glm-0.9.4.0" /I"..\external\glfw-3.2.1\include" /I"..\external\opencv-3.1.0\build\include" /ZI /nologo /W3 /WX- /sdl /Od /Oy- /D _CRT_SECURE_NO_WARNINGS /D _MBCS /Gm /EHsc /RTC1 /MDd /GS /fp:precise /Zc:wchar_t /Zc:forScope /Fo"DEBUG\\" /Fd"DEBUG\VC120.PDB" /Gd /TP /analyze- C:\CESARBRAGAGNINI\BITBUCKET\CG_AUGREA\CG_AUGREA_CIRRING\CG_AUGREA_CIRRING\MAIN.CPP
^C:\CESARBRAGAGNINI\BITBUCKET\CG_AUGREA\CG_AUGREA_CIRRING\CG_AUGREA_CIRRING\MODELDATA.CPP
/c /I..\external\FreeImage\Dist /I"..\external\glew-1.10.0\include" /I"..\external\glm-0.9.4.0" /I"..\external\glfw-3.2.1\include" /I"..\external\opencv-3.1.0\build\include" /ZI /nologo /W3 /WX- /sdl /Od /Oy- /D _CRT_SECURE_NO_WARNINGS /D _MBCS /Gm /EHsc /RTC1 /MDd /GS /fp:precise /Zc:wchar_t /Zc:forScope /Fo"DEBUG\\" /Fd"DEBUG\VC120.PDB" /Gd /TP /analyze- C:\CESARBRAGAGNINI\BITBUCKET\CG_AUGREA\CG_AUGREA_CIRRING\CG_AUGREA_CIRRING\MODELDATA.CPP
^C:\CESARBRAGAGNINI\BITBUCKET\CG_AUGREA\CG_AUGREA_CIRRING\CG_AUGREA_CIRRING\PATTERNDETECTOR.CPP
/c /I..\external\FreeImage\Dist /I"..\external\glew-1.10.0\include" /I"..\external\glm-0.9.4.0" /I"..\external\glfw-3.2.1\include" /I"..\external\opencv-3.1.0\build\include" /ZI /nologo /W3 /WX- /sdl /Od /Oy- /D _CRT_SECURE_NO_WARNINGS /D _MBCS /Gm /EHsc /RTC1 /MDd /GS /fp:precise /Zc:wchar_t /Zc:forScope /Fo"DEBUG\\" /Fd"DEBUG\VC120.PDB" /Gd /TP /analyze- C:\CESARBRAGAGNINI\BITBUCKET\CG_AUGREA\CG_AUGREA_CIRRING\CG_AUGREA_CIRRING\PATTERNDETECTOR.CPP
^C:\CESARBRAGAGNINI\BITBUCKET\CG_AUGREA\CG_AUGREA_CIRRING\CG_AUGREA_CIRRING\SHADER.CPP
/c /I..\external\FreeImage\Dist /I"..\external\glew-1.10.0\include" /I"..\external\glm-0.9.4.0" /I"..\external\glfw-3.2.1\include" /I"..\external\opencv-3.1.0\build\include" /ZI /nologo /W3 /WX- /sdl /Od /Oy- /D _CRT_SECURE_NO_WARNINGS /D _MBCS /Gm /EHsc /RTC1 /MDd /GS /fp:precise /Zc:wchar_t /Zc:forScope /Fo"DEBUG\\" /Fd"DEBUG\VC120.PDB" /Gd /TP /analyze- C:\CESARBRAGAGNINI\BITBUCKET\CG_AUGREA\CG_AUGREA_CIRRING\CG_AUGREA_CIRRING\SHADER.CPP
^C:\CESARBRAGAGNINI\BITBUCKET\CG_AUGREA\CG_AUGREA_CIRRING\CG_AUGREA_CIRRING\TRACKINGGRID.CPP
/c /I..\external\FreeImage\Dist /I"..\external\glew-1.10.0\include" /I"..\external\glm-0.9.4.0" /I"..\external\glfw-3.2.1\include" /I"..\external\opencv-3.1.0\build\include" /ZI /nologo /W3 /WX- /sdl /Od /Oy- /D _CRT_SECURE_NO_WARNINGS /D _MBCS /Gm /EHsc /RTC1 /MDd /GS /fp:precise /Zc:wchar_t /Zc:forScope /Fo"DEBUG\\" /Fd"DEBUG\VC120.PDB" /Gd /TP /analyze- C:\CESARBRAGAGNINI\BITBUCKET\CG_AUGREA\CG_AUGREA_CIRRING\CG_AUGREA_CIRRING\TRACKINGGRID.CPP
^C:\CESARBRAGAGNINI\BITBUCKET\CG_AUGREA\CG_AUGREA_CIRRING\CG_AUGREA_CIRRING\KFTRACKING1.CPP
/c /I..\external\FreeImage\Dist /I"..\external\glew-1.10.0\include" /I"..\external\glm-0.9.4.0" /I"..\external\glfw-3.2.1\include" /I"..\external\opencv-3.1.0\build\include" /ZI /nologo /W3 /WX- /sdl /Od /Oy- /D _CRT_SECURE_NO_WARNINGS /D _MBCS /Gm /EHsc /RTC1 /MDd /GS /fp:precise /Zc:wchar_t /Zc:forScope /Fo"DEBUG\\" /Fd"DEBUG\VC120.PDB" /Gd /TP /analyze- C:\CESARBRAGAGNINI\BITBUCKET\CG_AUGREA\CG_AUGREA_CIRRING\CG_AUGREA_CIRRING\KFTRACKING1.CPP
^C:\CESARBRAGAGNINI\BITBUCKET\CG_AUGREA\CG_AUGREA_CIRRING\CG_AUGREA_CIRRING\TRACKINGGRID1.CPP
/c /I..\external\FreeImage\Dist /I"..\external\glew-1.10.0\include" /I"..\external\glm-0.9.4.0" /I"..\external\glfw-3.2.1\include" /I"..\external\opencv-3.1.0\build\include" /ZI /nologo /W3 /WX- /sdl /Od /Oy- /D _CRT_SECURE_NO_WARNINGS /D _MBCS /Gm /EHsc /RTC1 /MDd /GS /fp:precise /Zc:wchar_t /Zc:forScope /Fo"DEBUG\\" /Fd"DEBUG\VC120.PDB" /Gd /TP /analyze- C:\CESARBRAGAGNINI\BITBUCKET\CG_AUGREA\CG_AUGREA_CIRRING\CG_AUGREA_CIRRING\TRACKINGGRID1.CPP
