^C:\CESARBRAGAGNINI\BITBUCKET\CG_AUGREA\VS2015CONSOLETESTAPP01\VS2015CONSOLETESTAPP01\TRACKINGGRID1.CPP
C:\CESARBRAGAGNINI\BITBUCKET\CG_AUGREA\VS2015CONSOLETESTAPP01\VS2015CONSOLETESTAPP01\TRACKINGGRID1.H
C:\PROGRAM FILES (X86)\MICROSOFT VISUAL STUDIO 12.0\VC\INCLUDE\VECTOR
C:\PROGRAM FILES (X86)\MICROSOFT VISUAL STUDIO 12.0\VC\INCLUDE\XMEMORY
C:\PROGRAM FILES (X86)\MICROSOFT VISUAL STUDIO 12.0\VC\INCLUDE\XMEMORY0
C:\PROGRAM FILES (X86)\MICROSOFT VISUAL STUDIO 12.0\VC\INCLUDE\CSTDLIB
C:\PROGRAM FILES (X86)\MICROSOFT VISUAL STUDIO 12.0\VC\INCLUDE\YVALS.H
C:\PROGRAM FILES (X86)\MICROSOFT VISUAL STUDIO 12.0\VC\INCLUDE\XKEYCHECK.H
C:\PROGRAM FILES (X86)\MICROSOFT VISUAL STUDIO 12.0\VC\INCLUDE\CRTDEFS.H
C:\PROGRAM FILES (X86)\MICROSOFT VISUAL STUDIO 12.0\VC\INCLUDE\SAL.H
C:\PROGRAM FILES (X86)\MICROSOFT VISUAL STUDIO 12.0\VC\INCLUDE\CONCURRENCYSAL.H
C:\PROGRAM FILES (X86)\MICROSOFT VISUAL STUDIO 12.0\VC\INCLUDE\VADEFS.H
C:\PROGRAM FILES (X86)\MICROSOFT VISUAL STUDIO 12.0\VC\INCLUDE\USE_ANSI.H
C:\PROGRAM FILES (X86)\MICROSOFT VISUAL STUDIO 12.0\VC\INCLUDE\STDLIB.H
C:\PROGRAM FILES (X86)\MICROSOFT VISUAL STUDIO 12.0\VC\INCLUDE\LIMITS.H
C:\PROGRAM FILES (X86)\MICROSOFT VISUAL STUDIO 12.0\VC\INCLUDE\LIMITS
C:\PROGRAM FILES (X86)\MICROSOFT VISUAL STUDIO 12.0\VC\INCLUDE\YMATH.H
C:\PROGRAM FILES (X86)\MICROSOFT VISUAL STUDIO 12.0\VC\INCLUDE\CFLOAT
C:\PROGRAM FILES (X86)\MICROSOFT VISUAL STUDIO 12.0\VC\INCLUDE\FLOAT.H
C:\PROGRAM FILES (X86)\MICROSOFT VISUAL STUDIO 12.0\VC\INCLUDE\CRTWRN.H
C:\PROGRAM FILES (X86)\MICROSOFT VISUAL STUDIO 12.0\VC\INCLUDE\CLIMITS
C:\PROGRAM FILES (X86)\MICROSOFT VISUAL STUDIO 12.0\VC\INCLUDE\CMATH
C:\PROGRAM FILES (X86)\MICROSOFT VISUAL STUDIO 12.0\VC\INCLUDE\MATH.H
C:\PROGRAM FILES (X86)\MICROSOFT VISUAL STUDIO 12.0\VC\INCLUDE\XTGMATH.H
C:\PROGRAM FILES (X86)\MICROSOFT VISUAL STUDIO 12.0\VC\INCLUDE\XTR1COMMON
C:\PROGRAM FILES (X86)\MICROSOFT VISUAL STUDIO 12.0\VC\INCLUDE\CWCHAR
C:\PROGRAM FILES (X86)\MICROSOFT VISUAL STUDIO 12.0\VC\INCLUDE\WCHAR.H
C:\PROGRAM FILES (X86)\MICROSOFT VISUAL STUDIO 12.0\VC\INCLUDE\SWPRINTF.INL
C:\PROGRAM FILES (X86)\MICROSOFT VISUAL STUDIO 12.0\VC\INCLUDE\WTIME.INL
C:\PROGRAM FILES (X86)\MICROSOFT VISUAL STUDIO 12.0\VC\INCLUDE\XSTDDEF
C:\PROGRAM FILES (X86)\MICROSOFT VISUAL STUDIO 12.0\VC\INCLUDE\CSTDDEF
C:\PROGRAM FILES (X86)\MICROSOFT VISUAL STUDIO 12.0\VC\INCLUDE\STDDEF.H
C:\PROGRAM FILES (X86)\MICROSOFT VISUAL STUDIO 12.0\VC\INCLUDE\INITIALIZER_LIST
C:\PROGRAM FILES (X86)\MICROSOFT VISUAL STUDIO 12.0\VC\INCLUDE\NEW
C:\PROGRAM FILES (X86)\MICROSOFT VISUAL STUDIO 12.0\VC\INCLUDE\EXCEPTION
C:\PROGRAM FILES (X86)\MICROSOFT VISUAL STUDIO 12.0\VC\INCLUDE\EH.H
C:\PROGRAM FILES (X86)\MICROSOFT VISUAL STUDIO 12.0\VC\INCLUDE\MALLOC.H
C:\PROGRAM FILES (X86)\MICROSOFT VISUAL STUDIO 12.0\VC\INCLUDE\STRING.H
C:\PROGRAM FILES (X86)\MICROSOFT VISUAL STUDIO 12.0\VC\INCLUDE\XUTILITY
C:\PROGRAM FILES (X86)\MICROSOFT VISUAL STUDIO 12.0\VC\INCLUDE\UTILITY
C:\PROGRAM FILES (X86)\MICROSOFT VISUAL STUDIO 12.0\VC\INCLUDE\IOSFWD
C:\PROGRAM FILES (X86)\MICROSOFT VISUAL STUDIO 12.0\VC\INCLUDE\CSTDIO
C:\PROGRAM FILES (X86)\MICROSOFT VISUAL STUDIO 12.0\VC\INCLUDE\STDIO.H
C:\PROGRAM FILES (X86)\MICROSOFT VISUAL STUDIO 12.0\VC\INCLUDE\CSTRING
C:\PROGRAM FILES (X86)\MICROSOFT VISUAL STUDIO 12.0\VC\INCLUDE\CRTDBG.H
C:\PROGRAM FILES (X86)\MICROSOFT VISUAL STUDIO 12.0\VC\INCLUDE\TYPE_TRAITS
C:\PROGRAM FILES (X86)\MICROSOFT VISUAL STUDIO 12.0\VC\INCLUDE\XREFWRAP
C:\PROGRAM FILES (X86)\MICROSOFT VISUAL STUDIO 12.0\VC\INCLUDE\XATOMIC0.H
C:\PROGRAM FILES (X86)\MICROSOFT VISUAL STUDIO 12.0\VC\INCLUDE\INTRIN.H
C:\PROGRAM FILES (X86)\MICROSOFT VISUAL STUDIO 12.0\VC\INCLUDE\SETJMP.H
C:\PROGRAM FILES (X86)\MICROSOFT VISUAL STUDIO 12.0\VC\INCLUDE\IMMINTRIN.H
C:\PROGRAM FILES (X86)\MICROSOFT VISUAL STUDIO 12.0\VC\INCLUDE\WMMINTRIN.H
C:\PROGRAM FILES (X86)\MICROSOFT VISUAL STUDIO 12.0\VC\INCLUDE\NMMINTRIN.H
C:\PROGRAM FILES (X86)\MICROSOFT VISUAL STUDIO 12.0\VC\INCLUDE\SMMINTRIN.H
C:\PROGRAM FILES (X86)\MICROSOFT VISUAL STUDIO 12.0\VC\INCLUDE\TMMINTRIN.H
C:\PROGRAM FILES (X86)\MICROSOFT VISUAL STUDIO 12.0\VC\INCLUDE\PMMINTRIN.H
C:\PROGRAM FILES (X86)\MICROSOFT VISUAL STUDIO 12.0\VC\INCLUDE\EMMINTRIN.H
C:\PROGRAM FILES (X86)\MICROSOFT VISUAL STUDIO 12.0\VC\INCLUDE\XMMINTRIN.H
C:\PROGRAM FILES (X86)\MICROSOFT VISUAL STUDIO 12.0\VC\INCLUDE\MMINTRIN.H
C:\PROGRAM FILES (X86)\MICROSOFT VISUAL STUDIO 12.0\VC\INCLUDE\AMMINTRIN.H
C:\PROGRAM FILES (X86)\MICROSOFT VISUAL STUDIO 12.0\VC\INCLUDE\MM3DNOW.H
C:\PROGRAM FILES (X86)\MICROSOFT VISUAL STUDIO 12.0\VC\INCLUDE\STDEXCEPT
C:\PROGRAM FILES (X86)\MICROSOFT VISUAL STUDIO 12.0\VC\INCLUDE\XSTRING
C:\CESARBRAGAGNINI\TOOLS\OPENCV\BUILD\INCLUDE\OPENCV2\OPENCV.HPP
C:\CESARBRAGAGNINI\TOOLS\OPENCV\BUILD\INCLUDE\OPENCV2\CORE.HPP
C:\CESARBRAGAGNINI\TOOLS\OPENCV\BUILD\INCLUDE\OPENCV2\CORE\CVDEF.H
C:\CESARBRAGAGNINI\TOOLS\OPENCV\BUILD\INCLUDE\OPENCV2\HAL\DEFS.H
C:\PROGRAM FILES (X86)\MICROSOFT VISUAL STUDIO 12.0\VC\INCLUDE\ALGORITHM
C:\CESARBRAGAGNINI\TOOLS\OPENCV\BUILD\INCLUDE\OPENCV2\CORE\VERSION.HPP
C:\CESARBRAGAGNINI\TOOLS\OPENCV\BUILD\INCLUDE\OPENCV2\CORE\BASE.HPP
C:\CESARBRAGAGNINI\TOOLS\OPENCV\BUILD\INCLUDE\OPENCV2\CORE\CVSTD.HPP
C:\PROGRAM FILES (X86)\MICROSOFT VISUAL STUDIO 12.0\VC\INCLUDE\CCTYPE
C:\PROGRAM FILES (X86)\MICROSOFT VISUAL STUDIO 12.0\VC\INCLUDE\CTYPE.H
C:\PROGRAM FILES (X86)\MICROSOFT VISUAL STUDIO 12.0\VC\INCLUDE\STRING
C:\PROGRAM FILES (X86)\MICROSOFT VISUAL STUDIO 12.0\VC\INCLUDE\ITERATOR
C:\PROGRAM FILES (X86)\MICROSOFT VISUAL STUDIO 12.0\VC\INCLUDE\ISTREAM
C:\PROGRAM FILES (X86)\MICROSOFT VISUAL STUDIO 12.0\VC\INCLUDE\OSTREAM
C:\PROGRAM FILES (X86)\MICROSOFT VISUAL STUDIO 12.0\VC\INCLUDE\IOS
C:\PROGRAM FILES (X86)\MICROSOFT VISUAL STUDIO 12.0\VC\INCLUDE\XLOCNUM
C:\PROGRAM FILES (X86)\MICROSOFT VISUAL STUDIO 12.0\VC\INCLUDE\STREAMBUF
C:\PROGRAM FILES (X86)\MICROSOFT VISUAL STUDIO 12.0\VC\INCLUDE\XIOSBASE
C:\PROGRAM FILES (X86)\MICROSOFT VISUAL STUDIO 12.0\VC\INCLUDE\XLOCALE
C:\PROGRAM FILES (X86)\MICROSOFT VISUAL STUDIO 12.0\VC\INCLUDE\TYPEINFO
C:\PROGRAM FILES (X86)\MICROSOFT VISUAL STUDIO 12.0\VC\INCLUDE\XLOCINFO
C:\PROGRAM FILES (X86)\MICROSOFT VISUAL STUDIO 12.0\VC\INCLUDE\XLOCINFO.H
C:\PROGRAM FILES (X86)\MICROSOFT VISUAL STUDIO 12.0\VC\INCLUDE\LOCALE.H
C:\PROGRAM FILES (X86)\MICROSOFT VISUAL STUDIO 12.0\VC\INCLUDE\XDEBUG
C:\PROGRAM FILES (X86)\MICROSOFT VISUAL STUDIO 12.0\VC\INCLUDE\XFACET
C:\PROGRAM FILES (X86)\MICROSOFT VISUAL STUDIO 12.0\VC\INCLUDE\SYSTEM_ERROR
C:\PROGRAM FILES (X86)\MICROSOFT VISUAL STUDIO 12.0\VC\INCLUDE\CERRNO
C:\PROGRAM FILES (X86)\MICROSOFT VISUAL STUDIO 12.0\VC\INCLUDE\ERRNO.H
C:\PROGRAM FILES (X86)\MICROSOFT VISUAL STUDIO 12.0\VC\INCLUDE\SHARE.H
C:\CESARBRAGAGNINI\TOOLS\OPENCV\BUILD\INCLUDE\OPENCV2\CORE\PTR.INL.HPP
C:\CESARBRAGAGNINI\TOOLS\OPENCV\BUILD\INCLUDE\OPENCV2\HAL.HPP
C:\CESARBRAGAGNINI\TOOLS\OPENCV\BUILD\INCLUDE\OPENCV2\CORE\SSE_UTILS.HPP
C:\CESARBRAGAGNINI\TOOLS\OPENCV\BUILD\INCLUDE\OPENCV2\CORE\TRAITS.HPP
C:\CESARBRAGAGNINI\TOOLS\OPENCV\BUILD\INCLUDE\OPENCV2\CORE\MATX.HPP
C:\CESARBRAGAGNINI\TOOLS\OPENCV\BUILD\INCLUDE\OPENCV2\CORE\TYPES.HPP
C:\CESARBRAGAGNINI\TOOLS\OPENCV\BUILD\INCLUDE\OPENCV2\CORE\MAT.HPP
C:\CESARBRAGAGNINI\TOOLS\OPENCV\BUILD\INCLUDE\OPENCV2\CORE\BUFFERPOOL.HPP
C:\CESARBRAGAGNINI\TOOLS\OPENCV\BUILD\INCLUDE\OPENCV2\CORE\MAT.INL.HPP
C:\CESARBRAGAGNINI\TOOLS\OPENCV\BUILD\INCLUDE\OPENCV2\CORE\PERSISTENCE.HPP
C:\CESARBRAGAGNINI\TOOLS\OPENCV\BUILD\INCLUDE\OPENCV2\CORE\OPERATIONS.HPP
C:\CESARBRAGAGNINI\TOOLS\OPENCV\BUILD\INCLUDE\OPENCV2\CORE\CVSTD.INL.HPP
C:\PROGRAM FILES (X86)\MICROSOFT VISUAL STUDIO 12.0\VC\INCLUDE\COMPLEX
C:\PROGRAM FILES (X86)\MICROSOFT VISUAL STUDIO 12.0\VC\INCLUDE\CCOMPLEX
C:\PROGRAM FILES (X86)\MICROSOFT VISUAL STUDIO 12.0\VC\INCLUDE\SSTREAM
C:\PROGRAM FILES (X86)\MICROSOFT VISUAL STUDIO 12.0\VC\INCLUDE\XCOMPLEX
C:\CESARBRAGAGNINI\TOOLS\OPENCV\BUILD\INCLUDE\OPENCV2\CORE\UTILITY.HPP
C:\CESARBRAGAGNINI\TOOLS\OPENCV\BUILD\INCLUDE\OPENCV2\CORE\CORE_C.H
C:\CESARBRAGAGNINI\TOOLS\OPENCV\BUILD\INCLUDE\OPENCV2\CORE\TYPES_C.H
C:\PROGRAM FILES (X86)\MICROSOFT VISUAL STUDIO 12.0\VC\INCLUDE\ASSERT.H
C:\CESARBRAGAGNINI\TOOLS\OPENCV\BUILD\INCLUDE\OPENCV2\CORE\OPTIM.HPP
C:\CESARBRAGAGNINI\TOOLS\OPENCV\BUILD\INCLUDE\OPENCV2\IMGPROC.HPP
C:\CESARBRAGAGNINI\TOOLS\OPENCV\BUILD\INCLUDE\OPENCV2\IMGPROC\IMGPROC_C.H
C:\CESARBRAGAGNINI\TOOLS\OPENCV\BUILD\INCLUDE\OPENCV2\IMGPROC\TYPES_C.H
C:\CESARBRAGAGNINI\TOOLS\OPENCV\BUILD\INCLUDE\OPENCV2\PHOTO.HPP
C:\CESARBRAGAGNINI\TOOLS\OPENCV\BUILD\INCLUDE\OPENCV2\PHOTO\PHOTO_C.H
C:\CESARBRAGAGNINI\TOOLS\OPENCV\BUILD\INCLUDE\OPENCV2\VIDEO.HPP
C:\CESARBRAGAGNINI\TOOLS\OPENCV\BUILD\INCLUDE\OPENCV2\VIDEO\TRACKING.HPP
C:\CESARBRAGAGNINI\TOOLS\OPENCV\BUILD\INCLUDE\OPENCV2\VIDEO\BACKGROUND_SEGM.HPP
C:\CESARBRAGAGNINI\TOOLS\OPENCV\BUILD\INCLUDE\OPENCV2\VIDEO\TRACKING_C.H
C:\CESARBRAGAGNINI\TOOLS\OPENCV\BUILD\INCLUDE\OPENCV2\FEATURES2D.HPP
C:\CESARBRAGAGNINI\TOOLS\OPENCV\BUILD\INCLUDE\OPENCV2\FLANN\MINIFLANN.HPP
C:\CESARBRAGAGNINI\TOOLS\OPENCV\BUILD\INCLUDE\OPENCV2\FLANN\DEFINES.H
C:\CESARBRAGAGNINI\TOOLS\OPENCV\BUILD\INCLUDE\OPENCV2\FLANN\CONFIG.H
C:\CESARBRAGAGNINI\TOOLS\OPENCV\BUILD\INCLUDE\OPENCV2\OBJDETECT.HPP
C:\CESARBRAGAGNINI\TOOLS\OPENCV\BUILD\INCLUDE\OPENCV2\OBJDETECT\DETECTION_BASED_TRACKER.HPP
C:\CESARBRAGAGNINI\TOOLS\OPENCV\BUILD\INCLUDE\OPENCV2\OBJDETECT\OBJDETECT_C.H
C:\PROGRAM FILES (X86)\MICROSOFT VISUAL STUDIO 12.0\VC\INCLUDE\DEQUE
C:\CESARBRAGAGNINI\TOOLS\OPENCV\BUILD\INCLUDE\OPENCV2\CALIB3D.HPP
C:\CESARBRAGAGNINI\TOOLS\OPENCV\BUILD\INCLUDE\OPENCV2\CORE\AFFINE.HPP
C:\CESARBRAGAGNINI\TOOLS\OPENCV\BUILD\INCLUDE\OPENCV2\CALIB3D\CALIB3D_C.H
C:\CESARBRAGAGNINI\TOOLS\OPENCV\BUILD\INCLUDE\OPENCV2\IMGCODECS.HPP
C:\CESARBRAGAGNINI\TOOLS\OPENCV\BUILD\INCLUDE\OPENCV2\VIDEOIO.HPP
C:\CESARBRAGAGNINI\TOOLS\OPENCV\BUILD\INCLUDE\OPENCV2\HIGHGUI.HPP
C:\CESARBRAGAGNINI\TOOLS\OPENCV\BUILD\INCLUDE\OPENCV2\HIGHGUI\HIGHGUI_C.H
C:\CESARBRAGAGNINI\TOOLS\OPENCV\BUILD\INCLUDE\OPENCV2\IMGCODECS\IMGCODECS_C.H
C:\CESARBRAGAGNINI\TOOLS\OPENCV\BUILD\INCLUDE\OPENCV2\VIDEOIO\VIDEOIO_C.H
C:\CESARBRAGAGNINI\TOOLS\OPENCV\BUILD\INCLUDE\OPENCV2\ML.HPP
C:\PROGRAM FILES (X86)\MICROSOFT VISUAL STUDIO 12.0\VC\INCLUDE\MAP
C:\PROGRAM FILES (X86)\MICROSOFT VISUAL STUDIO 12.0\VC\INCLUDE\XTREE
C:\PROGRAM FILES (X86)\MICROSOFT VISUAL STUDIO 12.0\VC\INCLUDE\TUPLE
C:\PROGRAM FILES (X86)\MICROSOFT VISUAL STUDIO 12.0\VC\INCLUDE\IOSTREAM
C:\CESARBRAGAGNINI\BITBUCKET\CG_AUGREA\VS2015CONSOLETESTAPP01\VS2015CONSOLETESTAPP01\GEOMETRIA.H
C:\PROGRAM FILES (X86)\MICROSOFT VISUAL STUDIO 12.0\VC\INCLUDE\SET
^C:\CESARBRAGAGNINI\BITBUCKET\CG_AUGREA\VS2015CONSOLETESTAPP01\VS2015CONSOLETESTAPP01\MAIN.CPP
C:\CESARBRAGAGNINI\BITBUCKET\CG_AUGREA\VS2015CONSOLETESTAPP01\VS2015CONSOLETESTAPP01\THREADPROCESSIMAGE1.H
C:\CESARBRAGAGNINI\BITBUCKET\CG_AUGREA\VS2015CONSOLETESTAPP01\VS2015CONSOLETESTAPP01\GLOBALCONSTANTS.H
C:\CESARBRAGAGNINI\BITBUCKET\CG_AUGREA\VS2015CONSOLETESTAPP01\VS2015CONSOLETESTAPP01\STATISTICS.H
C:\PROGRAM FILES (X86)\MICROSOFT VISUAL STUDIO 12.0\VC\INCLUDE\MATH.H
C:\PROGRAM FILES (X86)\MICROSOFT VISUAL STUDIO 12.0\VC\INCLUDE\CRTDEFS.H
C:\PROGRAM FILES (X86)\MICROSOFT VISUAL STUDIO 12.0\VC\INCLUDE\SAL.H
C:\PROGRAM FILES (X86)\MICROSOFT VISUAL STUDIO 12.0\VC\INCLUDE\CONCURRENCYSAL.H
C:\PROGRAM FILES (X86)\MICROSOFT VISUAL STUDIO 12.0\VC\INCLUDE\VADEFS.H
C:\PROGRAM FILES (X86)\MICROSOFT VISUAL STUDIO 12.0\VC\INCLUDE\VECTOR
C:\PROGRAM FILES (X86)\MICROSOFT VISUAL STUDIO 12.0\VC\INCLUDE\XMEMORY
C:\PROGRAM FILES (X86)\MICROSOFT VISUAL STUDIO 12.0\VC\INCLUDE\XMEMORY0
C:\PROGRAM FILES (X86)\MICROSOFT VISUAL STUDIO 12.0\VC\INCLUDE\CSTDLIB
C:\PROGRAM FILES (X86)\MICROSOFT VISUAL STUDIO 12.0\VC\INCLUDE\YVALS.H
C:\PROGRAM FILES (X86)\MICROSOFT VISUAL STUDIO 12.0\VC\INCLUDE\XKEYCHECK.H
C:\PROGRAM FILES (X86)\MICROSOFT VISUAL STUDIO 12.0\VC\INCLUDE\USE_ANSI.H
C:\PROGRAM FILES (X86)\MICROSOFT VISUAL STUDIO 12.0\VC\INCLUDE\STDLIB.H
C:\PROGRAM FILES (X86)\MICROSOFT VISUAL STUDIO 12.0\VC\INCLUDE\LIMITS.H
C:\PROGRAM FILES (X86)\MICROSOFT VISUAL STUDIO 12.0\VC\INCLUDE\LIMITS
C:\PROGRAM FILES (X86)\MICROSOFT VISUAL STUDIO 12.0\VC\INCLUDE\YMATH.H
C:\PROGRAM FILES (X86)\MICROSOFT VISUAL STUDIO 12.0\VC\INCLUDE\CFLOAT
C:\PROGRAM FILES (X86)\MICROSOFT VISUAL STUDIO 12.0\VC\INCLUDE\FLOAT.H
C:\PROGRAM FILES (X86)\MICROSOFT VISUAL STUDIO 12.0\VC\INCLUDE\CRTWRN.H
C:\PROGRAM FILES (X86)\MICROSOFT VISUAL STUDIO 12.0\VC\INCLUDE\CLIMITS
C:\PROGRAM FILES (X86)\MICROSOFT VISUAL STUDIO 12.0\VC\INCLUDE\CMATH
C:\PROGRAM FILES (X86)\MICROSOFT VISUAL STUDIO 12.0\VC\INCLUDE\XTGMATH.H
C:\PROGRAM FILES (X86)\MICROSOFT VISUAL STUDIO 12.0\VC\INCLUDE\XTR1COMMON
C:\PROGRAM FILES (X86)\MICROSOFT VISUAL STUDIO 12.0\VC\INCLUDE\CWCHAR
C:\PROGRAM FILES (X86)\MICROSOFT VISUAL STUDIO 12.0\VC\INCLUDE\WCHAR.H
C:\PROGRAM FILES (X86)\MICROSOFT VISUAL STUDIO 12.0\VC\INCLUDE\SWPRINTF.INL
C:\PROGRAM FILES (X86)\MICROSOFT VISUAL STUDIO 12.0\VC\INCLUDE\WTIME.INL
C:\PROGRAM FILES (X86)\MICROSOFT VISUAL STUDIO 12.0\VC\INCLUDE\XSTDDEF
C:\PROGRAM FILES (X86)\MICROSOFT VISUAL STUDIO 12.0\VC\INCLUDE\CSTDDEF
C:\PROGRAM FILES (X86)\MICROSOFT VISUAL STUDIO 12.0\VC\INCLUDE\STDDEF.H
C:\PROGRAM FILES (X86)\MICROSOFT VISUAL STUDIO 12.0\VC\INCLUDE\INITIALIZER_LIST
C:\PROGRAM FILES (X86)\MICROSOFT VISUAL STUDIO 12.0\VC\INCLUDE\NEW
C:\PROGRAM FILES (X86)\MICROSOFT VISUAL STUDIO 12.0\VC\INCLUDE\EXCEPTION
C:\PROGRAM FILES (X86)\MICROSOFT VISUAL STUDIO 12.0\VC\INCLUDE\EH.H
C:\PROGRAM FILES (X86)\MICROSOFT VISUAL STUDIO 12.0\VC\INCLUDE\MALLOC.H
C:\PROGRAM FILES (X86)\MICROSOFT VISUAL STUDIO 12.0\VC\INCLUDE\STRING.H
C:\PROGRAM FILES (X86)\MICROSOFT VISUAL STUDIO 12.0\VC\INCLUDE\XUTILITY
C:\PROGRAM FILES (X86)\MICROSOFT VISUAL STUDIO 12.0\VC\INCLUDE\UTILITY
C:\PROGRAM FILES (X86)\MICROSOFT VISUAL STUDIO 12.0\VC\INCLUDE\IOSFWD
C:\PROGRAM FILES (X86)\MICROSOFT VISUAL STUDIO 12.0\VC\INCLUDE\CSTDIO
C:\PROGRAM FILES (X86)\MICROSOFT VISUAL STUDIO 12.0\VC\INCLUDE\STDIO.H
C:\PROGRAM FILES (X86)\MICROSOFT VISUAL STUDIO 12.0\VC\INCLUDE\CSTRING
C:\PROGRAM FILES (X86)\MICROSOFT VISUAL STUDIO 12.0\VC\INCLUDE\CRTDBG.H
C:\PROGRAM FILES (X86)\MICROSOFT VISUAL STUDIO 12.0\VC\INCLUDE\TYPE_TRAITS
C:\PROGRAM FILES (X86)\MICROSOFT VISUAL STUDIO 12.0\VC\INCLUDE\XREFWRAP
C:\PROGRAM FILES (X86)\MICROSOFT VISUAL STUDIO 12.0\VC\INCLUDE\XATOMIC0.H
C:\PROGRAM FILES (X86)\MICROSOFT VISUAL STUDIO 12.0\VC\INCLUDE\INTRIN.H
C:\PROGRAM FILES (X86)\MICROSOFT VISUAL STUDIO 12.0\VC\INCLUDE\SETJMP.H
C:\PROGRAM FILES (X86)\MICROSOFT VISUAL STUDIO 12.0\VC\INCLUDE\IMMINTRIN.H
C:\PROGRAM FILES (X86)\MICROSOFT VISUAL STUDIO 12.0\VC\INCLUDE\WMMINTRIN.H
C:\PROGRAM FILES (X86)\MICROSOFT VISUAL STUDIO 12.0\VC\INCLUDE\NMMINTRIN.H
C:\PROGRAM FILES (X86)\MICROSOFT VISUAL STUDIO 12.0\VC\INCLUDE\SMMINTRIN.H
C:\PROGRAM FILES (X86)\MICROSOFT VISUAL STUDIO 12.0\VC\INCLUDE\TMMINTRIN.H
C:\PROGRAM FILES (X86)\MICROSOFT VISUAL STUDIO 12.0\VC\INCLUDE\PMMINTRIN.H
C:\PROGRAM FILES (X86)\MICROSOFT VISUAL STUDIO 12.0\VC\INCLUDE\EMMINTRIN.H
C:\PROGRAM FILES (X86)\MICROSOFT VISUAL STUDIO 12.0\VC\INCLUDE\XMMINTRIN.H
C:\PROGRAM FILES (X86)\MICROSOFT VISUAL STUDIO 12.0\VC\INCLUDE\MMINTRIN.H
C:\PROGRAM FILES (X86)\MICROSOFT VISUAL STUDIO 12.0\VC\INCLUDE\AMMINTRIN.H
C:\PROGRAM FILES (X86)\MICROSOFT VISUAL STUDIO 12.0\VC\INCLUDE\MM3DNOW.H
C:\PROGRAM FILES (X86)\MICROSOFT VISUAL STUDIO 12.0\VC\INCLUDE\STDEXCEPT
C:\PROGRAM FILES (X86)\MICROSOFT VISUAL STUDIO 12.0\VC\INCLUDE\XSTRING
C:\PROGRAM FILES (X86)\MICROSOFT VISUAL STUDIO 12.0\VC\INCLUDE\ALGORITHM
C:\CESARBRAGAGNINI\BITBUCKET\CG_AUGREA\VS2015CONSOLETESTAPP01\VS2015CONSOLETESTAPP01\KFTRACKING1.H
C:\CESARBRAGAGNINI\TOOLS\OPENCV\BUILD\INCLUDE\OPENCV2\VIDEO\TRACKING.HPP
C:\CESARBRAGAGNINI\TOOLS\OPENCV\BUILD\INCLUDE\OPENCV2\CORE.HPP
C:\CESARBRAGAGNINI\TOOLS\OPENCV\BUILD\INCLUDE\OPENCV2\CORE\CVDEF.H
C:\CESARBRAGAGNINI\TOOLS\OPENCV\BUILD\INCLUDE\OPENCV2\HAL\DEFS.H
C:\CESARBRAGAGNINI\TOOLS\OPENCV\BUILD\INCLUDE\OPENCV2\CORE\VERSION.HPP
C:\CESARBRAGAGNINI\TOOLS\OPENCV\BUILD\INCLUDE\OPENCV2\CORE\BASE.HPP
C:\CESARBRAGAGNINI\TOOLS\OPENCV\BUILD\INCLUDE\OPENCV2\CORE\CVSTD.HPP
C:\PROGRAM FILES (X86)\MICROSOFT VISUAL STUDIO 12.0\VC\INCLUDE\CCTYPE
C:\PROGRAM FILES (X86)\MICROSOFT VISUAL STUDIO 12.0\VC\INCLUDE\CTYPE.H
C:\PROGRAM FILES (X86)\MICROSOFT VISUAL STUDIO 12.0\VC\INCLUDE\STRING
C:\PROGRAM FILES (X86)\MICROSOFT VISUAL STUDIO 12.0\VC\INCLUDE\ITERATOR
C:\PROGRAM FILES (X86)\MICROSOFT VISUAL STUDIO 12.0\VC\INCLUDE\ISTREAM
C:\PROGRAM FILES (X86)\MICROSOFT VISUAL STUDIO 12.0\VC\INCLUDE\OSTREAM
C:\PROGRAM FILES (X86)\MICROSOFT VISUAL STUDIO 12.0\VC\INCLUDE\IOS
C:\PROGRAM FILES (X86)\MICROSOFT VISUAL STUDIO 12.0\VC\INCLUDE\XLOCNUM
C:\PROGRAM FILES (X86)\MICROSOFT VISUAL STUDIO 12.0\VC\INCLUDE\STREAMBUF
C:\PROGRAM FILES (X86)\MICROSOFT VISUAL STUDIO 12.0\VC\INCLUDE\XIOSBASE
C:\PROGRAM FILES (X86)\MICROSOFT VISUAL STUDIO 12.0\VC\INCLUDE\XLOCALE
C:\PROGRAM FILES (X86)\MICROSOFT VISUAL STUDIO 12.0\VC\INCLUDE\TYPEINFO
C:\PROGRAM FILES (X86)\MICROSOFT VISUAL STUDIO 12.0\VC\INCLUDE\XLOCINFO
C:\PROGRAM FILES (X86)\MICROSOFT VISUAL STUDIO 12.0\VC\INCLUDE\XLOCINFO.H
C:\PROGRAM FILES (X86)\MICROSOFT VISUAL STUDIO 12.0\VC\INCLUDE\LOCALE.H
C:\PROGRAM FILES (X86)\MICROSOFT VISUAL STUDIO 12.0\VC\INCLUDE\XDEBUG
C:\PROGRAM FILES (X86)\MICROSOFT VISUAL STUDIO 12.0\VC\INCLUDE\XFACET
C:\PROGRAM FILES (X86)\MICROSOFT VISUAL STUDIO 12.0\VC\INCLUDE\SYSTEM_ERROR
C:\PROGRAM FILES (X86)\MICROSOFT VISUAL STUDIO 12.0\VC\INCLUDE\CERRNO
C:\PROGRAM FILES (X86)\MICROSOFT VISUAL STUDIO 12.0\VC\INCLUDE\ERRNO.H
C:\PROGRAM FILES (X86)\MICROSOFT VISUAL STUDIO 12.0\VC\INCLUDE\SHARE.H
C:\CESARBRAGAGNINI\TOOLS\OPENCV\BUILD\INCLUDE\OPENCV2\CORE\PTR.INL.HPP
C:\CESARBRAGAGNINI\TOOLS\OPENCV\BUILD\INCLUDE\OPENCV2\HAL.HPP
C:\CESARBRAGAGNINI\TOOLS\OPENCV\BUILD\INCLUDE\OPENCV2\CORE\SSE_UTILS.HPP
C:\CESARBRAGAGNINI\TOOLS\OPENCV\BUILD\INCLUDE\OPENCV2\CORE\TRAITS.HPP
C:\CESARBRAGAGNINI\TOOLS\OPENCV\BUILD\INCLUDE\OPENCV2\CORE\MATX.HPP
C:\CESARBRAGAGNINI\TOOLS\OPENCV\BUILD\INCLUDE\OPENCV2\CORE\TYPES.HPP
C:\CESARBRAGAGNINI\TOOLS\OPENCV\BUILD\INCLUDE\OPENCV2\CORE\MAT.HPP
C:\CESARBRAGAGNINI\TOOLS\OPENCV\BUILD\INCLUDE\OPENCV2\CORE\BUFFERPOOL.HPP
C:\CESARBRAGAGNINI\TOOLS\OPENCV\BUILD\INCLUDE\OPENCV2\CORE\MAT.INL.HPP
C:\CESARBRAGAGNINI\TOOLS\OPENCV\BUILD\INCLUDE\OPENCV2\CORE\PERSISTENCE.HPP
C:\CESARBRAGAGNINI\TOOLS\OPENCV\BUILD\INCLUDE\OPENCV2\CORE\OPERATIONS.HPP
C:\CESARBRAGAGNINI\TOOLS\OPENCV\BUILD\INCLUDE\OPENCV2\CORE\CVSTD.INL.HPP
C:\PROGRAM FILES (X86)\MICROSOFT VISUAL STUDIO 12.0\VC\INCLUDE\COMPLEX
C:\PROGRAM FILES (X86)\MICROSOFT VISUAL STUDIO 12.0\VC\INCLUDE\CCOMPLEX
C:\PROGRAM FILES (X86)\MICROSOFT VISUAL STUDIO 12.0\VC\INCLUDE\SSTREAM
C:\PROGRAM FILES (X86)\MICROSOFT VISUAL STUDIO 12.0\VC\INCLUDE\XCOMPLEX
C:\CESARBRAGAGNINI\TOOLS\OPENCV\BUILD\INCLUDE\OPENCV2\CORE\UTILITY.HPP
C:\CESARBRAGAGNINI\TOOLS\OPENCV\BUILD\INCLUDE\OPENCV2\CORE\CORE_C.H
C:\CESARBRAGAGNINI\TOOLS\OPENCV\BUILD\INCLUDE\OPENCV2\CORE\TYPES_C.H
C:\PROGRAM FILES (X86)\MICROSOFT VISUAL STUDIO 12.0\VC\INCLUDE\ASSERT.H
C:\CESARBRAGAGNINI\TOOLS\OPENCV\BUILD\INCLUDE\OPENCV2\CORE\OPTIM.HPP
C:\CESARBRAGAGNINI\TOOLS\OPENCV\BUILD\INCLUDE\OPENCV2\IMGPROC.HPP
C:\CESARBRAGAGNINI\TOOLS\OPENCV\BUILD\INCLUDE\OPENCV2\IMGPROC\IMGPROC_C.H
C:\CESARBRAGAGNINI\TOOLS\OPENCV\BUILD\INCLUDE\OPENCV2\IMGPROC\TYPES_C.H
C:\CESARBRAGAGNINI\BITBUCKET\CG_AUGREA\VS2015CONSOLETESTAPP01\VS2015CONSOLETESTAPP01\TRACKINGGRID1.H
C:\CESARBRAGAGNINI\TOOLS\OPENCV\BUILD\INCLUDE\OPENCV2\OPENCV.HPP
C:\CESARBRAGAGNINI\TOOLS\OPENCV\BUILD\INCLUDE\OPENCV2\PHOTO.HPP
C:\CESARBRAGAGNINI\TOOLS\OPENCV\BUILD\INCLUDE\OPENCV2\PHOTO\PHOTO_C.H
C:\CESARBRAGAGNINI\TOOLS\OPENCV\BUILD\INCLUDE\OPENCV2\VIDEO.HPP
C:\CESARBRAGAGNINI\TOOLS\OPENCV\BUILD\INCLUDE\OPENCV2\VIDEO\BACKGROUND_SEGM.HPP
C:\CESARBRAGAGNINI\TOOLS\OPENCV\BUILD\INCLUDE\OPENCV2\VIDEO\TRACKING_C.H
C:\CESARBRAGAGNINI\TOOLS\OPENCV\BUILD\INCLUDE\OPENCV2\FEATURES2D.HPP
C:\CESARBRAGAGNINI\TOOLS\OPENCV\BUILD\INCLUDE\OPENCV2\FLANN\MINIFLANN.HPP
C:\CESARBRAGAGNINI\TOOLS\OPENCV\BUILD\INCLUDE\OPENCV2\FLANN\DEFINES.H
C:\CESARBRAGAGNINI\TOOLS\OPENCV\BUILD\INCLUDE\OPENCV2\FLANN\CONFIG.H
C:\CESARBRAGAGNINI\TOOLS\OPENCV\BUILD\INCLUDE\OPENCV2\OBJDETECT.HPP
C:\CESARBRAGAGNINI\TOOLS\OPENCV\BUILD\INCLUDE\OPENCV2\OBJDETECT\DETECTION_BASED_TRACKER.HPP
C:\CESARBRAGAGNINI\TOOLS\OPENCV\BUILD\INCLUDE\OPENCV2\OBJDETECT\OBJDETECT_C.H
C:\PROGRAM FILES (X86)\MICROSOFT VISUAL STUDIO 12.0\VC\INCLUDE\DEQUE
C:\CESARBRAGAGNINI\TOOLS\OPENCV\BUILD\INCLUDE\OPENCV2\CALIB3D.HPP
C:\CESARBRAGAGNINI\TOOLS\OPENCV\BUILD\INCLUDE\OPENCV2\CORE\AFFINE.HPP
C:\CESARBRAGAGNINI\TOOLS\OPENCV\BUILD\INCLUDE\OPENCV2\CALIB3D\CALIB3D_C.H
C:\CESARBRAGAGNINI\TOOLS\OPENCV\BUILD\INCLUDE\OPENCV2\IMGCODECS.HPP
C:\CESARBRAGAGNINI\TOOLS\OPENCV\BUILD\INCLUDE\OPENCV2\VIDEOIO.HPP
C:\CESARBRAGAGNINI\TOOLS\OPENCV\BUILD\INCLUDE\OPENCV2\HIGHGUI.HPP
C:\CESARBRAGAGNINI\TOOLS\OPENCV\BUILD\INCLUDE\OPENCV2\HIGHGUI\HIGHGUI_C.H
C:\CESARBRAGAGNINI\TOOLS\OPENCV\BUILD\INCLUDE\OPENCV2\IMGCODECS\IMGCODECS_C.H
C:\CESARBRAGAGNINI\TOOLS\OPENCV\BUILD\INCLUDE\OPENCV2\VIDEOIO\VIDEOIO_C.H
C:\CESARBRAGAGNINI\TOOLS\OPENCV\BUILD\INCLUDE\OPENCV2\ML.HPP
C:\PROGRAM FILES (X86)\MICROSOFT VISUAL STUDIO 12.0\VC\INCLUDE\MAP
C:\PROGRAM FILES (X86)\MICROSOFT VISUAL STUDIO 12.0\VC\INCLUDE\XTREE
C:\PROGRAM FILES (X86)\MICROSOFT VISUAL STUDIO 12.0\VC\INCLUDE\TUPLE
C:\PROGRAM FILES (X86)\MICROSOFT VISUAL STUDIO 12.0\VC\INCLUDE\IOSTREAM
C:\CESARBRAGAGNINI\TOOLS\OPENCV\BUILD\INCLUDE\OPENCV2\CALIB3D\CALIB3D.HPP
C:\PROGRAM FILES (X86)\MICROSOFT VISUAL STUDIO 12.0\VC\INCLUDE\SET
C:\PROGRAM FILES (X86)\MICROSOFT VISUAL STUDIO 12.0\VC\INCLUDE\STACK
C:\PROGRAM FILES (X86)\MICROSOFT VISUAL STUDIO 12.0\VC\INCLUDE\QUEUE
C:\CESARBRAGAGNINI\BITBUCKET\CG_AUGREA\VS2015CONSOLETESTAPP01\VS2015CONSOLETESTAPP01\SHADER.H
C:\PROGRAM FILES (X86)\MICROSOFT VISUAL STUDIO 12.0\VC\INCLUDE\TIME.H
C:\PROGRAM FILES (X86)\MICROSOFT VISUAL STUDIO 12.0\VC\INCLUDE\TIME.INL
C:\PROGRAM FILES (X86)\MICROSOFT VISUAL STUDIO 12.0\VC\BIN\1033\CLUI.DLL
C:\WINDOWS\GLOBALIZATION\SORTING\SORTDEFAULT.NLS
C:\WINDOWS\SYSTEM32\TZRES.DLL
^C:\CESARBRAGAGNINI\BITBUCKET\CG_AUGREA\VS2015CONSOLETESTAPP01\VS2015CONSOLETESTAPP01\KFTRACKING1.CPP
C:\CESARBRAGAGNINI\BITBUCKET\CG_AUGREA\VS2015CONSOLETESTAPP01\VS2015CONSOLETESTAPP01\KFTRACKING1.H
C:\CESARBRAGAGNINI\TOOLS\OPENCV\BUILD\INCLUDE\OPENCV2\VIDEO\TRACKING.HPP
C:\CESARBRAGAGNINI\TOOLS\OPENCV\BUILD\INCLUDE\OPENCV2\CORE.HPP
C:\CESARBRAGAGNINI\TOOLS\OPENCV\BUILD\INCLUDE\OPENCV2\CORE\CVDEF.H
C:\CESARBRAGAGNINI\TOOLS\OPENCV\BUILD\INCLUDE\OPENCV2\HAL\DEFS.H
C:\PROGRAM FILES (X86)\MICROSOFT VISUAL STUDIO 12.0\VC\INCLUDE\LIMITS.H
C:\PROGRAM FILES (X86)\MICROSOFT VISUAL STUDIO 12.0\VC\INCLUDE\CRTDEFS.H
C:\PROGRAM FILES (X86)\MICROSOFT VISUAL STUDIO 12.0\VC\INCLUDE\SAL.H
C:\PROGRAM FILES (X86)\MICROSOFT VISUAL STUDIO 12.0\VC\INCLUDE\CONCURRENCYSAL.H
C:\PROGRAM FILES (X86)\MICROSOFT VISUAL STUDIO 12.0\VC\INCLUDE\VADEFS.H
C:\PROGRAM FILES (X86)\MICROSOFT VISUAL STUDIO 12.0\VC\INCLUDE\EMMINTRIN.H
C:\PROGRAM FILES (X86)\MICROSOFT VISUAL STUDIO 12.0\VC\INCLUDE\XMMINTRIN.H
C:\PROGRAM FILES (X86)\MICROSOFT VISUAL STUDIO 12.0\VC\INCLUDE\MMINTRIN.H
C:\PROGRAM FILES (X86)\MICROSOFT VISUAL STUDIO 12.0\VC\INCLUDE\MALLOC.H
C:\PROGRAM FILES (X86)\MICROSOFT VISUAL STUDIO 12.0\VC\INCLUDE\PMMINTRIN.H
C:\PROGRAM FILES (X86)\MICROSOFT VISUAL STUDIO 12.0\VC\INCLUDE\TMMINTRIN.H
C:\PROGRAM FILES (X86)\MICROSOFT VISUAL STUDIO 12.0\VC\INCLUDE\SMMINTRIN.H
C:\PROGRAM FILES (X86)\MICROSOFT VISUAL STUDIO 12.0\VC\INCLUDE\NMMINTRIN.H
C:\PROGRAM FILES (X86)\MICROSOFT VISUAL STUDIO 12.0\VC\INCLUDE\CMATH
C:\PROGRAM FILES (X86)\MICROSOFT VISUAL STUDIO 12.0\VC\INCLUDE\YVALS.H
C:\PROGRAM FILES (X86)\MICROSOFT VISUAL STUDIO 12.0\VC\INCLUDE\XKEYCHECK.H
C:\PROGRAM FILES (X86)\MICROSOFT VISUAL STUDIO 12.0\VC\INCLUDE\USE_ANSI.H
C:\PROGRAM FILES (X86)\MICROSOFT VISUAL STUDIO 12.0\VC\INCLUDE\MATH.H
C:\PROGRAM FILES (X86)\MICROSOFT VISUAL STUDIO 12.0\VC\INCLUDE\XTGMATH.H
C:\PROGRAM FILES (X86)\MICROSOFT VISUAL STUDIO 12.0\VC\INCLUDE\XTR1COMMON
C:\PROGRAM FILES (X86)\MICROSOFT VISUAL STUDIO 12.0\VC\INCLUDE\ALGORITHM
C:\PROGRAM FILES (X86)\MICROSOFT VISUAL STUDIO 12.0\VC\INCLUDE\XMEMORY
C:\PROGRAM FILES (X86)\MICROSOFT VISUAL STUDIO 12.0\VC\INCLUDE\XMEMORY0
C:\PROGRAM FILES (X86)\MICROSOFT VISUAL STUDIO 12.0\VC\INCLUDE\CSTDLIB
C:\PROGRAM FILES (X86)\MICROSOFT VISUAL STUDIO 12.0\VC\INCLUDE\STDLIB.H
C:\PROGRAM FILES (X86)\MICROSOFT VISUAL STUDIO 12.0\VC\INCLUDE\LIMITS
C:\PROGRAM FILES (X86)\MICROSOFT VISUAL STUDIO 12.0\VC\INCLUDE\YMATH.H
C:\PROGRAM FILES (X86)\MICROSOFT VISUAL STUDIO 12.0\VC\INCLUDE\CFLOAT
C:\PROGRAM FILES (X86)\MICROSOFT VISUAL STUDIO 12.0\VC\INCLUDE\FLOAT.H
C:\PROGRAM FILES (X86)\MICROSOFT VISUAL STUDIO 12.0\VC\INCLUDE\CRTWRN.H
C:\PROGRAM FILES (X86)\MICROSOFT VISUAL STUDIO 12.0\VC\INCLUDE\CLIMITS
C:\PROGRAM FILES (X86)\MICROSOFT VISUAL STUDIO 12.0\VC\INCLUDE\CWCHAR
C:\PROGRAM FILES (X86)\MICROSOFT VISUAL STUDIO 12.0\VC\INCLUDE\WCHAR.H
C:\PROGRAM FILES (X86)\MICROSOFT VISUAL STUDIO 12.0\VC\INCLUDE\SWPRINTF.INL
C:\PROGRAM FILES (X86)\MICROSOFT VISUAL STUDIO 12.0\VC\INCLUDE\WTIME.INL
C:\PROGRAM FILES (X86)\MICROSOFT VISUAL STUDIO 12.0\VC\INCLUDE\XSTDDEF
C:\PROGRAM FILES (X86)\MICROSOFT VISUAL STUDIO 12.0\VC\INCLUDE\CSTDDEF
C:\PROGRAM FILES (X86)\MICROSOFT VISUAL STUDIO 12.0\VC\INCLUDE\STDDEF.H
C:\PROGRAM FILES (X86)\MICROSOFT VISUAL STUDIO 12.0\VC\INCLUDE\INITIALIZER_LIST
C:\PROGRAM FILES (X86)\MICROSOFT VISUAL STUDIO 12.0\VC\INCLUDE\NEW
C:\PROGRAM FILES (X86)\MICROSOFT VISUAL STUDIO 12.0\VC\INCLUDE\EXCEPTION
C:\PROGRAM FILES (X86)\MICROSOFT VISUAL STUDIO 12.0\VC\INCLUDE\EH.H
C:\PROGRAM FILES (X86)\MICROSOFT VISUAL STUDIO 12.0\VC\INCLUDE\STRING.H
C:\PROGRAM FILES (X86)\MICROSOFT VISUAL STUDIO 12.0\VC\INCLUDE\XUTILITY
C:\PROGRAM FILES (X86)\MICROSOFT VISUAL STUDIO 12.0\VC\INCLUDE\UTILITY
C:\PROGRAM FILES (X86)\MICROSOFT VISUAL STUDIO 12.0\VC\INCLUDE\IOSFWD
C:\PROGRAM FILES (X86)\MICROSOFT VISUAL STUDIO 12.0\VC\INCLUDE\CSTDIO
C:\PROGRAM FILES (X86)\MICROSOFT VISUAL STUDIO 12.0\VC\INCLUDE\STDIO.H
C:\PROGRAM FILES (X86)\MICROSOFT VISUAL STUDIO 12.0\VC\INCLUDE\CSTRING
C:\PROGRAM FILES (X86)\MICROSOFT VISUAL STUDIO 12.0\VC\INCLUDE\CRTDBG.H
C:\PROGRAM FILES (X86)\MICROSOFT VISUAL STUDIO 12.0\VC\INCLUDE\TYPE_TRAITS
C:\PROGRAM FILES (X86)\MICROSOFT VISUAL STUDIO 12.0\VC\INCLUDE\XREFWRAP
C:\PROGRAM FILES (X86)\MICROSOFT VISUAL STUDIO 12.0\VC\INCLUDE\XATOMIC0.H
C:\PROGRAM FILES (X86)\MICROSOFT VISUAL STUDIO 12.0\VC\INCLUDE\INTRIN.H
C:\PROGRAM FILES (X86)\MICROSOFT VISUAL STUDIO 12.0\VC\INCLUDE\SETJMP.H
C:\PROGRAM FILES (X86)\MICROSOFT VISUAL STUDIO 12.0\VC\INCLUDE\IMMINTRIN.H
C:\PROGRAM FILES (X86)\MICROSOFT VISUAL STUDIO 12.0\VC\INCLUDE\WMMINTRIN.H
C:\PROGRAM FILES (X86)\MICROSOFT VISUAL STUDIO 12.0\VC\INCLUDE\AMMINTRIN.H
C:\PROGRAM FILES (X86)\MICROSOFT VISUAL STUDIO 12.0\VC\INCLUDE\MM3DNOW.H
C:\CESARBRAGAGNINI\TOOLS\OPENCV\BUILD\INCLUDE\OPENCV2\CORE\VERSION.HPP
C:\CESARBRAGAGNINI\TOOLS\OPENCV\BUILD\INCLUDE\OPENCV2\CORE\BASE.HPP
C:\CESARBRAGAGNINI\TOOLS\OPENCV\BUILD\INCLUDE\OPENCV2\CORE\CVSTD.HPP
C:\PROGRAM FILES (X86)\MICROSOFT VISUAL STUDIO 12.0\VC\INCLUDE\CCTYPE
C:\PROGRAM FILES (X86)\MICROSOFT VISUAL STUDIO 12.0\VC\INCLUDE\CTYPE.H
C:\PROGRAM FILES (X86)\MICROSOFT VISUAL STUDIO 12.0\VC\INCLUDE\STRING
C:\PROGRAM FILES (X86)\MICROSOFT VISUAL STUDIO 12.0\VC\INCLUDE\ITERATOR
C:\PROGRAM FILES (X86)\MICROSOFT VISUAL STUDIO 12.0\VC\INCLUDE\ISTREAM
C:\PROGRAM FILES (X86)\MICROSOFT VISUAL STUDIO 12.0\VC\INCLUDE\OSTREAM
C:\PROGRAM FILES (X86)\MICROSOFT VISUAL STUDIO 12.0\VC\INCLUDE\IOS
C:\PROGRAM FILES (X86)\MICROSOFT VISUAL STUDIO 12.0\VC\INCLUDE\XLOCNUM
C:\PROGRAM FILES (X86)\MICROSOFT VISUAL STUDIO 12.0\VC\INCLUDE\STREAMBUF
C:\PROGRAM FILES (X86)\MICROSOFT VISUAL STUDIO 12.0\VC\INCLUDE\XIOSBASE
C:\PROGRAM FILES (X86)\MICROSOFT VISUAL STUDIO 12.0\VC\INCLUDE\XLOCALE
C:\PROGRAM FILES (X86)\MICROSOFT VISUAL STUDIO 12.0\VC\INCLUDE\STDEXCEPT
C:\PROGRAM FILES (X86)\MICROSOFT VISUAL STUDIO 12.0\VC\INCLUDE\XSTRING
C:\PROGRAM FILES (X86)\MICROSOFT VISUAL STUDIO 12.0\VC\INCLUDE\TYPEINFO
C:\PROGRAM FILES (X86)\MICROSOFT VISUAL STUDIO 12.0\VC\INCLUDE\XLOCINFO
C:\PROGRAM FILES (X86)\MICROSOFT VISUAL STUDIO 12.0\VC\INCLUDE\XLOCINFO.H
C:\PROGRAM FILES (X86)\MICROSOFT VISUAL STUDIO 12.0\VC\INCLUDE\LOCALE.H
C:\PROGRAM FILES (X86)\MICROSOFT VISUAL STUDIO 12.0\VC\INCLUDE\XDEBUG
C:\PROGRAM FILES (X86)\MICROSOFT VISUAL STUDIO 12.0\VC\INCLUDE\XFACET
C:\PROGRAM FILES (X86)\MICROSOFT VISUAL STUDIO 12.0\VC\INCLUDE\SYSTEM_ERROR
C:\PROGRAM FILES (X86)\MICROSOFT VISUAL STUDIO 12.0\VC\INCLUDE\CERRNO
C:\PROGRAM FILES (X86)\MICROSOFT VISUAL STUDIO 12.0\VC\INCLUDE\ERRNO.H
C:\PROGRAM FILES (X86)\MICROSOFT VISUAL STUDIO 12.0\VC\INCLUDE\SHARE.H
C:\CESARBRAGAGNINI\TOOLS\OPENCV\BUILD\INCLUDE\OPENCV2\CORE\PTR.INL.HPP
C:\CESARBRAGAGNINI\TOOLS\OPENCV\BUILD\INCLUDE\OPENCV2\HAL.HPP
C:\CESARBRAGAGNINI\TOOLS\OPENCV\BUILD\INCLUDE\OPENCV2\CORE\SSE_UTILS.HPP
C:\CESARBRAGAGNINI\TOOLS\OPENCV\BUILD\INCLUDE\OPENCV2\CORE\TRAITS.HPP
C:\CESARBRAGAGNINI\TOOLS\OPENCV\BUILD\INCLUDE\OPENCV2\CORE\MATX.HPP
C:\CESARBRAGAGNINI\TOOLS\OPENCV\BUILD\INCLUDE\OPENCV2\CORE\TYPES.HPP
C:\PROGRAM FILES (X86)\MICROSOFT VISUAL STUDIO 12.0\VC\INCLUDE\VECTOR
C:\CESARBRAGAGNINI\TOOLS\OPENCV\BUILD\INCLUDE\OPENCV2\CORE\MAT.HPP
C:\CESARBRAGAGNINI\TOOLS\OPENCV\BUILD\INCLUDE\OPENCV2\CORE\BUFFERPOOL.HPP
C:\CESARBRAGAGNINI\TOOLS\OPENCV\BUILD\INCLUDE\OPENCV2\CORE\MAT.INL.HPP
C:\CESARBRAGAGNINI\TOOLS\OPENCV\BUILD\INCLUDE\OPENCV2\CORE\PERSISTENCE.HPP
C:\CESARBRAGAGNINI\TOOLS\OPENCV\BUILD\INCLUDE\OPENCV2\CORE\OPERATIONS.HPP
C:\CESARBRAGAGNINI\TOOLS\OPENCV\BUILD\INCLUDE\OPENCV2\CORE\CVSTD.INL.HPP
C:\PROGRAM FILES (X86)\MICROSOFT VISUAL STUDIO 12.0\VC\INCLUDE\COMPLEX
C:\PROGRAM FILES (X86)\MICROSOFT VISUAL STUDIO 12.0\VC\INCLUDE\CCOMPLEX
C:\PROGRAM FILES (X86)\MICROSOFT VISUAL STUDIO 12.0\VC\INCLUDE\SSTREAM
C:\PROGRAM FILES (X86)\MICROSOFT VISUAL STUDIO 12.0\VC\INCLUDE\XCOMPLEX
C:\CESARBRAGAGNINI\TOOLS\OPENCV\BUILD\INCLUDE\OPENCV2\CORE\UTILITY.HPP
C:\CESARBRAGAGNINI\TOOLS\OPENCV\BUILD\INCLUDE\OPENCV2\CORE\CORE_C.H
C:\CESARBRAGAGNINI\TOOLS\OPENCV\BUILD\INCLUDE\OPENCV2\CORE\TYPES_C.H
C:\PROGRAM FILES (X86)\MICROSOFT VISUAL STUDIO 12.0\VC\INCLUDE\ASSERT.H
C:\CESARBRAGAGNINI\TOOLS\OPENCV\BUILD\INCLUDE\OPENCV2\CORE\OPTIM.HPP
C:\CESARBRAGAGNINI\TOOLS\OPENCV\BUILD\INCLUDE\OPENCV2\IMGPROC.HPP
C:\CESARBRAGAGNINI\TOOLS\OPENCV\BUILD\INCLUDE\OPENCV2\IMGPROC\IMGPROC_C.H
C:\CESARBRAGAGNINI\TOOLS\OPENCV\BUILD\INCLUDE\OPENCV2\IMGPROC\TYPES_C.H
