^C:\CESARBRAGAGNINI\BITBUCKET\CG_AUGREA\VS2015CONSOLETESTAPP01\VS2015CONSOLETESTAPP01\KFTRACKING1.CPP|C:\CESARBRAGAGNINI\BITBUCKET\CG_AUGREA\VS2015CONSOLETESTAPP01\VS2015CONSOLETESTAPP01\MAIN.CPP|C:\CESARBRAGAGNINI\BITBUCKET\CG_AUGREA\VS2015CONSOLETESTAPP01\VS2015CONSOLETESTAPP01\TRACKINGGRID1.CPP
C:\CESARBRAGAGNINI\BITBUCKET\CG_AUGREA\VS2015CONSOLETESTAPP01\VS2015CONSOLETESTAPP01\DEBUG\VC120.PDB
C:\CESARBRAGAGNINI\BITBUCKET\CG_AUGREA\VS2015CONSOLETESTAPP01\VS2015CONSOLETESTAPP01\DEBUG\VC120.IDB
C:\CESARBRAGAGNINI\BITBUCKET\CG_AUGREA\VS2015CONSOLETESTAPP01\VS2015CONSOLETESTAPP01\DEBUG\KFTRACKING1.OBJ
C:\CESARBRAGAGNINI\BITBUCKET\CG_AUGREA\VS2015CONSOLETESTAPP01\VS2015CONSOLETESTAPP01\DEBUG\MAIN.OBJ
C:\CESARBRAGAGNINI\BITBUCKET\CG_AUGREA\VS2015CONSOLETESTAPP01\VS2015CONSOLETESTAPP01\DEBUG\TRACKINGGRID1.OBJ
^C:\CESARBRAGAGNINI\BITBUCKET\CG_AUGREA\VS2015CONSOLETESTAPP01\VS2015CONSOLETESTAPP01\KFTRACKING1.CPP
C:\CESARBRAGAGNINI\BITBUCKET\CG_AUGREA\VS2015CONSOLETESTAPP01\VS2015CONSOLETESTAPP01\DEBUG\VC120.PDB
^C:\CESARBRAGAGNINI\BITBUCKET\CG_AUGREA\VS2015CONSOLETESTAPP01\VS2015CONSOLETESTAPP01\MAIN.CPP
C:\CESARBRAGAGNINI\BITBUCKET\CG_AUGREA\VS2015CONSOLETESTAPP01\VS2015CONSOLETESTAPP01\DEBUG\VC120.PDB
C:\CESARBRAGAGNINI\BITBUCKET\CG_AUGREA\VS2015CONSOLETESTAPP01\VS2015CONSOLETESTAPP01\DEBUG\VC120.IDB
C:\CESARBRAGAGNINI\BITBUCKET\CG_AUGREA\VS2015CONSOLETESTAPP01\VS2015CONSOLETESTAPP01\DEBUG\MAIN.OBJ
^C:\CESARBRAGAGNINI\BITBUCKET\CG_AUGREA\VS2015CONSOLETESTAPP01\VS2015CONSOLETESTAPP01\TRACKINGGRID1.CPP
C:\CESARBRAGAGNINI\BITBUCKET\CG_AUGREA\VS2015CONSOLETESTAPP01\VS2015CONSOLETESTAPP01\DEBUG\VC120.PDB
