^C:\USERS\GQUIS\DOCUMENTS\VISIONCOMPUTACIONAL2\CG_AUGREA\VS2015CONSOLETESTAPP01\VS2015CONSOLETESTAPP01\X64\DEBUG\KFTRACKINGCPP.OBJ|C:\USERS\GQUIS\DOCUMENTS\VISIONCOMPUTACIONAL2\CG_AUGREA\VS2015CONSOLETESTAPP01\VS2015CONSOLETESTAPP01\X64\DEBUG\MAIN.OBJ|C:\USERS\GQUIS\DOCUMENTS\VISIONCOMPUTACIONAL2\CG_AUGREA\VS2015CONSOLETESTAPP01\VS2015CONSOLETESTAPP01\X64\DEBUG\TRACKINGGRID.OBJ
C:\USERS\GQUIS\DOCUMENTS\OPENCV310\BUILD\X64\VC12\LIB\OPENCV_WORLD310D.LIB
C:\PROGRAM FILES (X86)\WINDOWS KITS\8.1\LIB\WINV6.3\UM\X64\KERNEL32.LIB
C:\PROGRAM FILES (X86)\WINDOWS KITS\8.1\LIB\WINV6.3\UM\X64\USER32.LIB
C:\PROGRAM FILES (X86)\WINDOWS KITS\8.1\LIB\WINV6.3\UM\X64\GDI32.LIB
C:\PROGRAM FILES (X86)\WINDOWS KITS\8.1\LIB\WINV6.3\UM\X64\WINSPOOL.LIB
C:\PROGRAM FILES (X86)\WINDOWS KITS\8.1\LIB\WINV6.3\UM\X64\COMDLG32.LIB
C:\PROGRAM FILES (X86)\WINDOWS KITS\8.1\LIB\WINV6.3\UM\X64\ADVAPI32.LIB
C:\PROGRAM FILES (X86)\WINDOWS KITS\8.1\LIB\WINV6.3\UM\X64\SHELL32.LIB
C:\PROGRAM FILES (X86)\WINDOWS KITS\8.1\LIB\WINV6.3\UM\X64\OLE32.LIB
C:\PROGRAM FILES (X86)\WINDOWS KITS\8.1\LIB\WINV6.3\UM\X64\OLEAUT32.LIB
C:\PROGRAM FILES (X86)\WINDOWS KITS\8.1\LIB\WINV6.3\UM\X64\UUID.LIB
C:\PROGRAM FILES (X86)\WINDOWS KITS\8.1\LIB\WINV6.3\UM\X64\ODBC32.LIB
C:\PROGRAM FILES (X86)\WINDOWS KITS\8.1\LIB\WINV6.3\UM\X64\ODBCCP32.LIB
C:\USERS\GQUIS\DOCUMENTS\VISIONCOMPUTACIONAL2\CG_AUGREA\VS2015CONSOLETESTAPP01\VS2015CONSOLETESTAPP01\X64\DEBUG\KFTRACKINGCPP.OBJ
C:\USERS\GQUIS\DOCUMENTS\VISIONCOMPUTACIONAL2\CG_AUGREA\VS2015CONSOLETESTAPP01\VS2015CONSOLETESTAPP01\X64\DEBUG\MAIN.OBJ
C:\USERS\GQUIS\DOCUMENTS\VISIONCOMPUTACIONAL2\CG_AUGREA\VS2015CONSOLETESTAPP01\VS2015CONSOLETESTAPP01\X64\DEBUG\TRACKINGGRID.OBJ
C:\WINDOWS\SYSTEM32\TZRES.DLL
C:\WINDOWS\GLOBALIZATION\SORTING\SORTDEFAULT.NLS
C:\PROGRAM FILES (X86)\MICROSOFT VISUAL STUDIO 12.0\VC\LIB\AMD64\MSVCPRTD.LIB
C:\PROGRAM FILES (X86)\MICROSOFT VISUAL STUDIO 12.0\VC\LIB\AMD64\MSVCRTD.LIB
C:\PROGRAM FILES (X86)\MICROSOFT VISUAL STUDIO 12.0\VC\LIB\AMD64\OLDNAMES.LIB
